Stat 340 – Dirichlet Distribution + Case Study
…
Problem: can’t observe strategy, only choice

Majority choice is consistent with many strategies

Randomly choose tube (p=1/3)

Randomly choose tube that was successful (p=1/2)

Data generating process vs GLM

Boxes <- read_delim("https://raw.githubusercontent.com/rmcelreath/rethinking/refs/heads/master/data/Boxes.csv")

Boxes

# A tibble: 629 × 5
       y gender   age majority_first culture
   <dbl>  <dbl> <dbl>          <dbl>   <dbl>
 1     1      1     6              0       2
 2     3      1     8              0       2
 3     2      2     8              1       2
 4     1      1     6              0       2
 5     2      1     5              1       2
 6     2      2     7              1       2
 7     2      2     6              0       2
 8     1      1     6              1       2
 9     3      1     8              0       2
10     2      1     5              1       2
# ℹ 619 more rows
…
