Stat 340 – Normal-Normal model
…
Let $$ be an unknown mean parameter and \((Y_1,Y_2,\ldots,Y_n)\) be an independent \(N(\mu,\sigma^2)\) sample where \(\sigma\) is assumed to be known.

\[\mu \sim N(\theta, \tau^2)\] \[Y_i | \mu  \stackrel{iid}{\sim} N(\mu, \sigma^2)\] \[\mu|\vec{y} \; \sim \;  N\bigg(\frac{\theta\sigma^2/n + \bar{y}\tau^2}{\tau^2+\sigma^2/n}, \; \frac{\tau^2\sigma^2/n}{\tau^2+\sigma^2/n}\bigg)\]

You’ll show this on homework this week!

Posterior Mean as weighted average

Example

Partial census data for the Dobe area !Kung San, a foraging population

Compiled from Nancy Howell’s interviews

# A tibble: 352 × 4
   height weight   age  male
    <dbl>  <dbl> <dbl> <dbl>
 1   152.   47.8    63     1
 2   140.   36.5    63     0
 3   137.   31.9    65     0
 4   157.   53.0    41     1
 5   145.   41.3    51     0
 6   164.   63.0    35     1
 7   149.   38.2    32     0
 8   169.   55.5    27     1
 9   148.   34.9    19     0
10   165.   54.5    54     1
# ℹ 342 more rows
…
