Stat 340 – Intro to Posterior Approximation
…
# A tibble: 1 × 2
  `sum(unnorm_post)` `sum(posterior)`
               <dbl>            <dbl>
1              0.318                1

4. Randomly sample \(N\) \(\theta\) grid values with respect to their corresponding normalized posterior probabilities.

# Set the seed
set.seed(84735)

# Step 4: sample from the discretized posterior
post_sample <- sample_n(grid_data, size = 10000, 
                        weight = posterior, replace = TRUE)

# A tibble: 10,000 × 5
   pi_grid prior likelihood unnorm_post posterior
     <dbl> <dbl>      <dbl>       <dbl>     <dbl>
 1     0.8  0.96     0.268       0.258      0.810
 2     0.8  0.96     0.268       0.258      0.810
 3     0.8  0.96     0.268       0.258      0.810
 4     0.6  1.44     0.0403      0.0580     0.183
 5     0.8  0.96     0.268       0.258      0.810
 6     0.8  0.96     0.268       0.258      0.810
 7     0.8  0.96     0.268       0.258      0.810
 8     0.8  0.96     0.268       0.258      0.810
 9     0.8  0.96     0.268       0.258      0.810
10     0.8  0.96     0.268       0.258      0.810
# ℹ 9,990 more rows
…
