Stat 340 – Hierarchical Models are Exciting!
…
spotify

# A tibble: 350 × 3
   artist title         popularity
   <fct>  <chr>              <dbl>
 1 Alok   On & On               79
 2 Alok   All The Lies          56
 3 Alok   Hear Me Now           75
 4 Alok   The Wall              65
 5 Alok   Hear Me Now           52
 6 Alok   Toda La Noche         45
 7 Alok   On & On               79
 8 Alok   The Wall              61
 9 Alok   Tell Me Why           61
10 Alok   Metaphor              61
# ℹ 340 more rows
…
